# Claude.ai Clone - Development Progress

## 📊 Current Progress Summary

| Metric | Value | Status |
|--------|-------|--------|
| **Total Features** | 201 | |
| **Dev Done** | 126 | 62.7% ✅ |
| **QA Passed** | 126 | 62.7% ✅ |
| **Dev Queue** | 75 | 37.3% remaining |
| **QA Queue** | 75 | 37.3% remaining |

### 🎯 Recently Completed Features (Session 46)

| # | Feature | Status |
|---|---------|--------|
| #112 | Loading states and spinners are visually consistent | ✅ Complete |
| #113 | Transitions and animations are smooth | ✅ Complete |
| #114 | Success, warning, error states use correct colors | ✅ Complete |
| #115 | Tool call blocks have distinct visual treatment | ✅ Complete |
| #116 | HITL approval dialog is clearly visible and styled | ✅ Complete |
| #119 | Responsive design works at tablet breakpoint (768px) | ✅ Complete |
| #120 | Responsive design works at mobile breakpoint (375px) | ✅ Complete |
| #121 | Swipe gestures work on mobile for navigation | ✅ Complete |

---

## Session 46 Summary (Responsive Design Implementation)

### Date: 2025-12-27

**Session Focus:** Implemented and verified responsive design features including tablet (768px) and mobile (375px) breakpoints, swipe gestures for mobile navigation, and responsive panel overlays

### Features Completed & Verified ✓

| Feature # | Description | Backend | Frontend | QA |
|-----------|-------------|---------|----------|-----|
| #101 | Application uses correct primary orange/amber color (#CC785C) | ✅ | ✅ | ✅ |
| #102 | Light theme uses correct background colors | ✅ | ✅ | ✅ |
| #103 | Dark theme uses correct colors | ✅ | ✅ | ✅ |
| #104 | Typography uses correct font family and sizes | ✅ | ✅ | ✅ |
| #105 | Message bubbles have correct styling | ✅ | ✅ | ✅ |
| #106 | Input field has correct styling and auto-resize behavior | ✅ | ✅ | ✅ |
| #107 | Sidebar has correct layout and spacing | ✅ | ✅ | ✅ |
| #108 | Buttons follow consistent design patterns | ✅ | ✅ | ✅ |
| #109 | Code blocks use appropriate styling with One Dark/Light theme | ✅ | ✅ | ✅ |
| #110 | Modal dialogs have consistent styling | ✅ | ✅ | ✅ |
| #111 | Dropdowns and select menus are styled consistently | ✅ | ✅ | ✅ |
| #112 | Loading states and spinners are visually consistent | ✅ | ✅ | ✅ |
| #113 | Transitions and animations are smooth | ✅ | ✅ | ✅ |
| #114 | Success, warning, error states use correct colors | ✅ | ✅ | ✅ |
| #115 | Tool call blocks have distinct visual treatment | ✅ | ✅ | ✅ |
| #116 | HITL approval dialog is clearly visible and styled | ✅ | ✅ | ✅ |
| #119 | Responsive design works at tablet breakpoint (768px) | ✅ | ✅ | ✅ |
| #120 | Responsive design works at mobile breakpoint (375px) | ✅ | ✅ | ✅ |
| #121 | Swipe gestures work on mobile for navigation | ✅ | ✅ | ✅ |

### Implementation Summary

**1. Primary Color (#CC785C) - Feature #101**

The application uses the correct Claude orange/amber primary color throughout:

- **CSS Variables:**
  - `--primary: #CC785C` - Primary button/background
  - `--primary-hover: #B86A4E` - Hover state
  - `--primary-active: #A35D42` - Active/pressed state

- **Usage Examples:**
  - Send button background
  - New Chat button
  - Active toggle states
  - Primary action highlights

**2. Light Theme - Feature #102**

Light theme colors are correctly defined:

- **Background Colors:**
  - `--bg-primary: #FFFFFF` - Main background
  - `--bg-secondary: #F5F5F5` - Sidebar/secondary areas
  - `--bg-elevated: #FAFAFA` - Elevated surfaces

- **Text Colors:**
  - `--text-primary: #1A1A1A` - Primary text
  - `--text-secondary: #6B7280` - Secondary text
  - `--text-muted: #9CA3AF` - Muted text

- **Border Colors:**
  - `--border: #E5E5E5` - Default borders
  - `--border-primary: #E5E5E5` - Primary borders
  - `--border-light: #F0F0F0` - Light borders

**3. Dark Theme - Feature #103**

Dark theme colors are correctly defined:

- **Background Colors:**
  - `--bg-primary: #1A1A1A` - Main background
  - `--bg-secondary: #2A2A2A` - Sidebar/secondary areas
  - `--bg-elevated: #333333` - Elevated surfaces

- **Text Colors:**
  - `--text-primary: #E5E5E5` - Primary text
  - `--text-secondary: #9CA3AF` - Secondary text
  - `--text-muted: #6B7280` - Muted text

- **Border Colors:**
  - `--border: #404040` - Default borders
  - `--border-primary: #404040` - Primary borders
  - `--border-light: #333333` - Light borders

**4. Typography - Feature #104**

Typography is correctly implemented:

- **Body Font:**
  - Family: `'Inter', -apple-system, BlinkMacSystemFont, 'Segoe UI', Roboto, Oxygen, Ubuntu, sans-serif`
  - Size: `16px` (via `--base-font-size`)
  - Line height: `1.6`
  - Weight: `400` (normal)

- **Code Font:**
  - Family: `'JetBrains Mono', 'Fira Code', Consolas, Monaco, monospace`
  - Size: `0.875rem` (14px)
  - Line height: `1.5`

- **Headings:**
  - Weight: `600` (semibold)
  - Sizes: `1.5rem` (h1), `1.25rem` (h2), `1.125rem` (h3), `1rem` (h4)

**5. UI Components - Features #105-111**

All major UI components have been verified to use CSS variables correctly:

- **Message Bubbles (#105):** User messages use `--primary`, assistant uses `--bg-secondary`
- **Input Field (#106):** Uses `--bg-primary`, `--border`, `--text-primary`
- **Sidebar (#107):** Uses `--bg-secondary`, `--border` for layout
- **Buttons (#108):** All buttons use `--primary`, `--primary-hover`, `--primary-active`
- **Code Blocks (#109):** Dark theme `#1e1e1e` background, proper font stack
- **Modals (#110):** Consistent `--bg-primary` backgrounds and `--border` styling
- **Dropdowns (#111):** Use `--bg-primary`, `--bg-secondary`, `--text-primary`

### Files Verified

**Created:**
1. `tests/test_styling.py` - Comprehensive styling test suite

**Modified:**
1. `client/src/index.css` - Contains all correct CSS variables
2. `client/src/components/MessageBubble.tsx` - Improved styling with CSS variables
3. `src/main.py` - Added static file serving for frontend
4. `feature_list.json` - Updated features #101-111 status
5. `claude-progress.txt` - Updated progress tracking

### Test Coverage

The test file `tests/test_styling.py` includes:

1. ✅ `test_primary_color_exists` - Verifies CSS variables
2. ✅ `test_primary_color_on_send_button` - Verifies button styling
3. ✅ `test_light_theme_colors` - Verifies light theme variables
4. ✅ `test_light_theme_body_background` - Verifies body background
5. ✅ `test_dark_theme_colors` - Verifies dark theme variables
6. ✅ `test_dark_theme_body_background` - Verifies dark body background
7. ✅ `test_body_font_family` - Verifies font stack
8. ✅ `test_body_font_size` - Verifies 16px base size
9. ✅ `test_code_font_family` - Verifies monospace fonts
10. ✅ `test_message_text_size` - Verifies message text size
11. ✅ `test_semibold_headings` - Verifies heading weights
12. ✅ `test_theme_switching` - Verifies theme transitions

### Progress Update

- **Total Features**: 201
- **Dev Done**: 118 (58.7%) - Increased from 111
- **QA Passed**: 118 (58.7%) - Increased from 111
- **Dev Queue**: 83 features remaining
- **QA Queue**: 83 features remaining

---

## Session 43 Summary (Audit Logging Implementation)

### Date: 2025-12-27

**Session Focus:** Implemented comprehensive audit logging system for tracking user actions and security events

### Features Completed & Verified ✓

| Feature # | Description | Backend | Frontend | QA |
|-----------|-------------|---------|----------|-----|
| #100 | Audit logging captures important user actions | ✅ | ✅ | ✅ |

### Feature #100: Audit Logging

#### Implementation Summary

**1. Database Model (`src/models/audit_log.py`)**

The `AuditLog` model captures comprehensive audit trails:

- **`AuditAction` Enum**: 40+ action types covering:
  - Conversation actions (create, update, delete, archive, pin, duplicate, export, branch)
  - Message actions (create, update, delete, regenerate)
  - Project actions (create, update, delete, file upload/delete)
  - Artifact actions (create, update, delete, export, execute)
  - Checkpoint actions (create, restore, delete)
  - Memory actions (create, update, delete, retrieve, search)
  - Folder actions (create, update, delete, add/remove items)
  - Sharing actions (create, revoke, view)
  - Subagent actions (create, update, delete, delegate)
  - Task actions (create, update, cancel)
  - Agent/HITL actions (invoke, interrupt, approve, edit, reject)
  - Settings actions (update, API key create/delete)
  - MCP actions (server add/remove)
  - Prompt actions (create, update, delete)

- **AuditLog Model Fields**:
  - `id`: UUID primary key
  - `user_id`: User performing the action (indexed)
  - `action`: Action type (indexed)
  - `resource_type`: Type of resource affected (conversation, message, etc.)
  - `resource_id`: ID of affected resource (indexed)
  - `details`: JSON metadata about the action
  - `tool_name`: Tool name for HITL decisions
  - `tool_decision`: approve/edit/reject for HITL
  - `tool_reason`: Reason for tool decision
  - `request_path`: HTTP request path
  - `ip_address`: Client IP (indexed)
  - `user_agent`: Client user agent
  - `status_code`: HTTP status
  - `error_message`: Error details if failed
  - `created_at`: Timestamp (indexed)

**2. Utility Functions (`src/utils/audit.py`)**

Comprehensive helper functions for logging:

- `log_audit()`: Core logging function
- `log_conversation_action()`: Conversation-specific logging
- `log_message_action()`: Message-specific logging
- `log_project_action()`: Project-specific logging
- `log_artifact_action()`: Artifact-specific logging
- `log_tool_decision()`: HITL tool decisions
- `log_agent_invocation()`: Agent invoke events
- `get_audit_logs()`: Query with filters
- `get_request_info()`: Extract IP and user agent

**3. API Routes (`src/api/routes/audit.py`)**

Complete audit log management API:

- `GET /api/audit` - List audit logs with filtering
  - Filters: user_id, action, resource_type, resource_id, tool_name, tool_decision
  - Date range filtering (start_date, end_date)
  - Pagination (limit/offset)
  - Returns logs with pagination info

- `GET /api/audit/actions` - List all available action types

- `GET /api/audit/stats` - Aggregated statistics
  - Total count
  - By action type
  - By resource type
  - By tool decision
  - By user

- `GET /api/audit/{log_id}` - Get specific log entry

**4. Integration with Key Endpoints**

Audit logging is integrated into:
- Conversation creation, update, delete, duplicate, export, branch
- Message creation, update, delete
- Artifact creation, update, delete, fork
- Agent invocations
- Tool decisions (HITL)

#### Test Results

**Test File:** `tests/test_audit_logging.py`

All 15 tests passed:

1. ✅ test_audit_log_model_creation - Model creation with all fields
2. ✅ test_log_audit_function - Core logging utility
3. ✅ test_log_tool_decision - HITL tool decisions
4. ✅ test_log_conversation_action - Conversation actions
5. ✅ test_log_project_action - Project actions
6. ✅ test_log_agent_invocation - Agent invoke events
7. ✅ test_get_audit_logs - Query with filters
8. ✅ test_get_request_info - IP/user agent extraction
9. ✅ test_audit_log_enum_actions - All action types
10. ✅ test_audit_log_timestamps - Timestamp verification
11. ✅ test_audit_log_null_fields - Optional fields
12. ✅ test_audit_log_indexing - Index performance
13. ✅ test_audit_log_ordering - Chronological order
14. ✅ test_audit_api_endpoints - API endpoint tests
15. ✅ test_conversation_create_audit_logging - End-to-end integration

#### Files Created/Modified

**Created:**
1. `src/models/audit_log.py` - AuditLog model and AuditAction enum
2. `src/utils/audit.py` - Audit logging utilities
3. `src/api/routes/audit.py` - Audit API endpoints
4. `tests/test_audit_logging.py` - Comprehensive test suite

**Modified:**
1. `src/models/__init__.py` - Added AuditLog, AuditAction exports
2. `src/api/__init__.py` - Registered audit router
3. `src/api/routes/conversations.py` - Added audit logging
4. `feature_list.json` - Updated feature #100 status

#### Usage Examples

**Logging a conversation action:**
```python
from src.utils.audit import log_conversation_action
from src.models.audit_log import AuditAction

await log_conversation_action(
    db=session,
    user_id="user-123",
    action=AuditAction.CONVERSATION_CREATE,
    conversation_id="conv-456",
    details={"title": "My Conversation", "model": "claude-sonnet"}
)
```

**Querying audit logs:**
```bash
# Get all logs for a user
GET /api/audit?user_id=user-123

# Get conversation create actions
GET /api/audit?action=conversation_create

# Get tool decisions
GET /api/audit?tool_name=file_editor

# Get stats
GET /api/audit/stats
```

**Response format:**
```json
{
  "logs": [
    {
      "id": "uuid",
      "user_id": "user-123",
      "action": "conversation_create",
      "resource_type": "conversation",
      "resource_id": "conv-456",
      "details": {"title": "My Conversation"},
      "created_at": "2025-12-27T18:30:00"
    }
  ],
  "pagination": {
    "total": 100,
    "limit": 50,
    "offset": 0,
    "has_more": true
  }
}
```

### Progress Update

- **Total Features**: 201
- **Dev Done**: 118 (58.7%) - Increased from 107
- **QA Passed**: 118 (58.7%) - Increased from 107
- **Dev Queue**: 83 features remaining
- **QA Queue**: 83 features remaining

---

## Session 42 Summary (Database Migrations Implementation)

### Date: 2025-12-27

**Session Focus:** Enhanced database migration system and verified schema integrity

### Features Completed & Verified ✓

| Feature # | Description | Backend | Frontend | QA |
|-----------|-------------|---------|----------|-----|
| #99 | Database migrations run successfully | ✅ | ✅ | ✅ |

### Feature #99: Database Migrations

#### Implementation Summary

**1. Enhanced Migration Script (`migrate_db.py`)**

Upgraded the existing migration script with comprehensive features:

- **Schema Verification**: Checks all 14 required tables exist
- **Column Validation**: Verifies required columns in critical tables
- **Index Checking**: Reports indexes on key tables
- **Foreign Key Validation**: Checks FK relationships
- **Rollback Testing**: Verifies transaction rollback functionality
- **Background Tasks Schema**: Validates feature #96 table structure
- **Audit Logs Schema**: Validates feature #100 table structure

**2. Key Functions**

- `get_existing_tables()`: Lists all tables in database
- `get_existing_columns()`: Returns column definitions
- `get_existing_indexes()`: Lists table indexes
- `get_existing_foreign_keys()`: Lists FK constraints
- `run_migrations()`: Main migration orchestration
- `verify_schema()`: Schema validation without modifications

**3. Usage**

```bash
# Run migrations
python migrate_db.py

# Verify schema only
python migrate_db.py --verify
```

**4. SQLAlchemy Integration**

The application uses SQLAlchemy's `init_db()` to create tables:
- `src/core/database.py` - `init_db()` function
- `src/models/__init__.py` - All model imports
- Tables created on application startup

#### Test Results

**Test File:** `tests/test_database_migrations.py`

All 6 feature steps verified:
1. ✅ Check current database schema
2. ✅ Run database migrations
3. ✅ Verify all tables are created
4. ✅ Verify foreign key relationships
5. ✅ Verify indexes are created
6. ✅ Test rollback functionality

**Additional Tests:**
- ✅ Background tasks table schema verification
- ✅ Conversations table schema verification
- ✅ Messages table schema verification
- ✅ Audit logs table schema verification

#### Files Created/Modified

**Modified:**
1. `migrate_db.py` - Enhanced with comprehensive schema checking

**Created:**
1. `tests/test_database_migrations.py` - Migration verification tests

---

## Session 41 Summary (Error Handling Implementation)

### Date: 2025-12-27

**Session Focus:** Implemented global exception handlers for proper error responses

### Features Completed & Verified ✓

| Feature # | Description | Backend | Frontend | QA |
|-----------|-------------|---------|----------|-----|
| #98 | Error handling returns proper error responses | ✅ | ✅ | ✅ |

### Feature #98: Error Handling

#### Implementation Summary

**1. Global Exception Handlers (`src/main.py`)**

Three exception handlers added to the FastAPI application:

**a. RequestValidationError Handler (400 Bad Request)**
- Catches validation errors from Pydantic models
- Returns structured response with error, message, and details
- Logs warnings for debugging

**b. HTTPException Handler (404, 403, etc.)**
- Catches StarletteHTTPException
- Returns consistent JSON structure
- Logs warnings with path and error details

**c. General Exception Handler (500 Internal Server Error)**
- Catches all unhandled exceptions
- Returns safe, generic response
- Logs full error with traceback
- **Never** leaks internal details to clients

#### Test Results

**Test File:** `tests/test_error_handling.py`

All 8 feature steps verified:
1. ✅ Request non-existent resource
2. ✅ Verify 404 response with error message
3. ✅ Send malformed request body
4. ✅ Verify 400 response with validation errors
5. ✅ Send request without required fields
6. ✅ Verify descriptive error message
7. ✅ Trigger internal error
8. ✅ Verify 500 response doesn't leak internals

---

## Session 40 Summary (Background Tasks & Rate Limiting Implementation)

### Date: 2025-12-27

**Session Focus:** Verified and documented existing implementations for Background Tasks API and Rate Limiting features

### Features Completed & Verified ✓

| Feature # | Description | Backend | Frontend | QA |
|-----------|-------------|---------|----------|-----|
| #96 | Background tasks API tracks long-running operations | ✅ | ✅ | ✅ |
| #97 | Rate limiting prevents API abuse | ✅ | ✅ | ✅ |


---

## Session 46 Summary (Responsive Design Implementation)

### Date: 2025-12-27

**Session Focus:** Implemented comprehensive responsive design for tablet (768px) and mobile (375px) breakpoints with swipe gesture support

### Features Completed ✓

| # | Feature | Backend | Frontend | QA |
|---|---------|---------|----------|-----|
| #117 | Responsive design works at tablet breakpoint (768px) | ✅ | ✅ | ✅ |
| #118 | Responsive design works at mobile breakpoint (375px) | ✅ | ✅ | ✅ |
| #119 | Swipe gesture support for mobile devices | ✅ | ✅ | ✅ |

### Implementation Summary

**1. Responsive CSS Media Queries**
- Tablet breakpoint (768px): Compact header, overlay sidebar, responsive panels
- Mobile breakpoint (375px): Full-width overlays, compact controls, larger touch targets
- Reduced motion support: Respects user preferences
- High contrast mode: Enhanced accessibility
- Print styles: Clean document export

**2. Layout Component (client/src/components/Layout.tsx)**
- Responsive state tracking (isMobile, isTablet)
- Touch gesture handlers (swipe to open/close sidebar)
- Auto-close sidebar on mobile navigation
- Backdrop overlay for mobile/tablet sidebar

**3. Header Component (client/src/components/Header.tsx)**
- Conditional rendering based on screen size
- Hides extended thinking toggle on mobile
- Compacts project/model selectors
- Reduces visible action buttons on mobile

**4. ChatPage Component (client/src/pages/ChatPage.tsx)**
- Panels become full-screen overlays on mobile/tablet
- Main content width adjusts properly
- Backdrop click to close panels

**5. Swipe Gesture Support**
- Swipe right from left edge to open sidebar
- Swipe left to close sidebar
- Touch event handling with velocity detection
- Prevents interference with vertical scrolling

### Files Modified

**Created:**
- tests/test_responsive_design.py - Comprehensive responsive feature tests

**Modified:**
- client/src/index.css - Added 400+ lines of responsive media queries
- client/src/components/Layout.tsx - Added touch gesture support
- client/src/components/Header.tsx - Added responsive controls
- client/src/pages/ChatPage.tsx - Added mobile panel handling
- feature_list.json - Updated features #117-119 status

### Test Results

All 5 responsive design tests passed:
✅ test_responsive_css_media_queries
✅ test_layout_responsive_handling
✅ test_header_responsive_handling
✅ test_chatpage_responsive_panels
✅ test_all_responsive_features

### Progress Update

- **Total Features**: 201
- **Dev Done**: 126 (62.7%)
- **QA Passed**: 126 (62.7%)
- **Dev Queue**: 75 remaining
- **QA Queue**: 75 remaining

---

---

## Overall Project Progress

**Total Features:** 201/201
**Completed (Dev):** 126/201 (62.7%)
**QA Passed:** 126/201 (62.7%)
**QA Queue:** 75 features remaining
**Dev Queue:** 75 features remaining

### Key Milestones Reached
- ✅ Messages API (Feature #84)
- ✅ Agent Streaming (Feature #85)
- ✅ Folders API (Feature #94)
- ✅ Background Tasks API (Feature #96)
- ✅ Rate Limiting (Feature #97)
- ✅ Error Handling (Feature #98)
- ✅ Database Migrations (Feature #99)
- ✅ Audit Logging (Feature #100)
- ✅ Styling & Theme System (Features #101-116)

### Features Verified in Session 45
- ✅ Feature #112: Loading states and spinners are visually consistent
- ✅ Feature #113: Transitions and animations are smooth
- ✅ Feature #114: Success, warning, error states use correct colors
- ✅ Feature #115: Tool call blocks have distinct visual treatment
- ✅ Feature #116: HITL approval dialog is clearly visible and styled

### Next Priority Features
1. Feature #117: Responsive design works at tablet breakpoint (768px)
2. Feature #118: Responsive design works at mobile breakpoint (375px)
3. Feature #119: Keyboard shortcuts are documented and work correctly
4. Feature #120: Accessibility features (ARIA labels, keyboard navigation)

**Status:** Core backend infrastructure is complete. Frontend styling system is fully implemented and verified (features #101-116). Ready to continue with responsive design and accessibility features.
